RISCV_pipe/sim/rv_pipe.vcd
$date
	Sun Sep 29 16:09:05 2024
$end
$version
	Icarus Verilog
$end
$timescale
	1s
$end
$scope module testbench $end
$var wire 32 ! WriteData [31:0] $end
$var wire 1 " MemWrite $end
$var wire 32 # DataAdr [31:0] $end
$var reg 1 $ clk $end
$var reg 1 % reset $end
$scope module dut $end
$var wire 1 $ clk $end
$var wire 1 % reset $end
$var wire 32 & WriteDataM [31:0] $end
$var wire 32 ' ReadDataM [31:0] $end
$var wire 32 ( PCF [31:0] $end
$var wire 1 " MemWriteM $end
$var wire 32 ) InstrF [31:0] $end
$var wire 32 * DataAdrM [31:0] $end
$scope module dmem $end
$var wire 1 $ clk $end
$var wire 32 + rd [31:0] $end
$var wire 1 " we $end
$var wire 32 , wd [31:0] $end
$var wire 32 - a [31:0] $end
$upscope $end
$scope module imem $end
$var wire 32 . rd [31:0] $end
$var wire 32 / a [31:0] $end
$upscope $end
$scope module riscv $end
$var wire 32 0 InstrF [31:0] $end
$var wire 32 1 ReadDataM [31:0] $end
$var wire 1 $ clk $end
$var wire 1 % reset $end
$var wire 7 2 opD [6:0] $end
$var wire 1 3 funct7b5D $end
$var wire 3 4 funct3D [2:0] $end
$var wire 1 5 ZeroE $end
$var wire 32 6 WriteDataM [31:0] $end
$var wire 1 7 StallF $end
$var wire 1 8 StallD $end
$var wire 5 9 Rs2E [4:0] $end
$var wire 5 : Rs2D [4:0] $end
$var wire 5 ; Rs1E [4:0] $end
$var wire 5 < Rs1D [4:0] $end
$var wire 2 = ResultSrcW [1:0] $end
$var wire 1 > ResultSrcEb0 $end
$var wire 1 ? RegWriteW $end
$var wire 1 @ RegWriteM $end
$var wire 5 A RdW [4:0] $end
$var wire 5 B RdM [4:0] $end
$var wire 5 C RdE [4:0] $end
$var wire 1 D PCSrcE $end
$var wire 32 E PCF [31:0] $end
$var wire 1 " MemWriteM $end
$var wire 3 F ImmSrcD [2:0] $end
$var wire 2 G ForwardBE [1:0] $end
$var wire 2 H ForwardAE [1:0] $end
$var wire 1 I FlushE $end
$var wire 1 J FlushD $end
$var wire 1 K ALUSrcBE $end
$var wire 1 L ALUSrcAE $end
$var wire 32 M ALUResultM [31:0] $end
$var wire 3 N ALUControlE [2:0] $end
$scope module c $end
$var wire 1 D PCSrcE $end
$var wire 1 $ clk $end
$var wire 1 % reset $end
$var wire 7 O opD [6:0] $end
$var wire 1 3 funct7b5D $end
$var wire 3 P funct3D [2:0] $end
$var wire 1 5 ZeroE $end
$var wire 2 Q ResultSrcW [1:0] $end
$var wire 2 R ResultSrcM [1:0] $end
$var wire 1 > ResultSrcEb0 $end
$var wire 2 S ResultSrcE [1:0] $end
$var wire 2 T ResultSrcD [1:0] $end
$var wire 1 ? RegWriteW $end
$var wire 1 @ RegWriteM $end
$var wire 1 U RegWriteE $end
$var wire 1 V RegWriteD $end
$var wire 1 " MemWriteM $end
$var wire 1 W MemWriteE $end
$var wire 1 X MemWriteD $end
$var wire 1 Y JumpE $end
$var wire 1 Z JumpD $end
$var wire 3 [ ImmSrcD [2:0] $end
$var wire 1 I FlushE $end
$var wire 1 \ BranchE $end
$var wire 1 ] BranchD $end
$var wire 1 K ALUSrcBE $end
$var wire 1 ^ ALUSrcBD $end
$var wire 1 L ALUSrcAE $end
$var wire 1 _ ALUSrcAD $end
$var wire 2 ` ALUOpD [1:0] $end
$var wire 3 a ALUControlE [2:0] $end
$var wire 3 b ALUControlD [2:0] $end
$scope module ad $end
$var wire 1 c RtypeSub $end
$var wire 1 d opb5 $end
$var wire 1 3 funct7b5 $end
$var wire 3 e funct3 [2:0] $end
$var wire 2 f ALUOp [1:0] $end
$var reg 3 g ALUControl [2:0] $end
$upscope $end
$scope module controlregE $end
$var wire 1 $ clk $end
$var wire 11 h d [10:0] $end
$var wire 1 % reset $end
$var wire 1 I clear $end
$var reg 11 i q [10:0] $end
$upscope $end
$scope module controlregM $end
$var wire 1 $ clk $end
$var wire 4 j d [3:0] $end
$var wire 1 % reset $end
$var reg 4 k q [3:0] $end
$upscope $end
$scope module controlregW $end
$var wire 1 $ clk $end
$var wire 3 l d [2:0] $end
$var wire 1 % reset $end
$var reg 3 m q [2:0] $end
$upscope $end
$scope module md $end
$var wire 7 n op [6:0] $end
$var wire 2 o ResultSrc [1:0] $end
$var wire 1 V RegWrite $end
$var wire 1 X MemWrite $end
$var wire 1 Z Jump $end
$var wire 3 p ImmSrc [2:0] $end
$var wire 1 ] Branch $end
$var wire 1 ^ ALUSrcB $end
$var wire 1 _ ALUSrcA $end
$var wire 2 q ALUOp [1:0] $end
$var reg 13 r controls [12:0] $end
$upscope $end
$upscope $end
$scope module dp $end
$var wire 3 s ALUControlE [2:0] $end
$var wire 1 L ALUSrcAE $end
$var wire 1 K ALUSrcBE $end
$var wire 3 t ImmSrcD [2:0] $end
$var wire 32 u InstrF [31:0] $end
$var wire 1 " MemWriteM $end
$var wire 1 D PCSrcE $end
$var wire 32 v ReadDataM [31:0] $end
$var wire 1 ? RegWriteW $end
$var wire 2 w ResultSrcW [1:0] $end
$var wire 1 $ clk $end
$var wire 1 % reset $end
$var wire 7 x opD [6:0] $end
$var wire 1 3 funct7b5D $end
$var wire 3 y funct3D [2:0] $end
$var wire 1 5 ZeroE $end
$var wire 32 z WriteDataM [31:0] $end
$var wire 32 { WriteDataE [31:0] $end
$var wire 1 7 StallF $end
$var wire 1 8 StallD $end
$var wire 32 | SrcBE [31:0] $end
$var wire 32 } SrcAEforward [31:0] $end
$var wire 32 ~ SrcAE [31:0] $end
$var wire 5 !" Rs2E [4:0] $end
$var wire 5 "" Rs2D [4:0] $end
$var wire 5 #" Rs1E [4:0] $end
$var wire 5 $" Rs1D [4:0] $end
$var wire 32 %" ResultW [31:0] $end
$var wire 32 &" ReadDataW [31:0] $end
$var wire 5 '" RdW [4:0] $end
$var wire 5 (" RdM [4:0] $end
$var wire 5 )" RdE [4:0] $end
$var wire 5 *" RdD [4:0] $end
$var wire 32 +" RD2E [31:0] $end
$var wire 32 ," RD2D [31:0] $end
$var wire 32 -" RD1E [31:0] $end
$var wire 32 ." RD1D [31:0] $end
$var wire 32 /" PCTargetE [31:0] $end
$var wire 32 0" PCPlus4W [31:0] $end
$var wire 32 1" PCPlus4M [31:0] $end
$var wire 32 2" PCPlus4F [31:0] $end
$var wire 32 3" PCPlus4E [31:0] $end
$var wire 32 4" PCPlus4D [31:0] $end
$var wire 32 5" PCNextF [31:0] $end
$var wire 32 6" PCF [31:0] $end
$var wire 32 7" PCE [31:0] $end
$var wire 32 8" PCD [31:0] $end
$var wire 32 9" InstrD [31:0] $end
$var wire 32 :" ImmExtE [31:0] $end
$var wire 32 ;" ImmExtD [31:0] $end
$var wire 2 <" ForwardBE [1:0] $end
$var wire 2 =" ForwardAE [1:0] $end
$var wire 1 I FlushE $end
$var wire 1 J FlushD $end
$var wire 32 >" ALUResultW [31:0] $end
$var wire 32 ?" ALUResultM [31:0] $end
$var wire 32 @" ALUResultE [31:0] $end
$scope module alu $end
$var wire 3 A" alucontrol [2:0] $end
$var wire 1 B" isAddSub $end
$var wire 1 C" v $end
$var wire 1 5 zero $end
$var wire 32 D" sum [31:0] $end
$var wire 32 E" condinvb [31:0] $end
$var wire 32 F" b [31:0] $end
$var wire 32 G" a [31:0] $end
$var reg 32 H" result [31:0] $end
$upscope $end
$scope module branchadd $end
$var wire 32 I" a [31:0] $end
$var wire 32 J" b [31:0] $end
$var wire 32 K" s [31:0] $end
$upscope $end
$scope module ext $end
$var wire 3 L" immsrc [2:0] $end
$var wire 25 M" instr [31:7] $end
$var reg 32 N" immext [31:0] $end
$upscope $end
$scope module faemux $end
$var wire 32 O" d0 [31:0] $end
$var wire 32 P" d2 [31:0] $end
$var wire 32 Q" y [31:0] $end
$var wire 2 R" s [1:0] $end
$var wire 32 S" d1 [31:0] $end
$upscope $end
$scope module fbemux $end
$var wire 32 T" d0 [31:0] $end
$var wire 32 U" d2 [31:0] $end
$var wire 32 V" y [31:0] $end
$var wire 2 W" s [1:0] $end
$var wire 32 X" d1 [31:0] $end
$upscope $end
$scope module pcadd $end
$var wire 32 Y" b [31:0] $end
$var wire 32 Z" s [31:0] $end
$var wire 32 [" a [31:0] $end
$upscope $end
$scope module pcmux $end
$var wire 32 \" d0 [31:0] $end
$var wire 32 ]" d1 [31:0] $end
$var wire 1 D s $end
$var wire 32 ^" y [31:0] $end
$upscope $end
$scope module pcreg $end
$var wire 1 $ clk $end
$var wire 32 _" d [31:0] $end
$var wire 1 `" en $end
$var wire 1 % reset $end
$var reg 32 a" q [31:0] $end
$upscope $end
$scope module regD $end
$var wire 1 $ clk $end
$var wire 96 b" d [95:0] $end
$var wire 1 c" en $end
$var wire 1 % reset $end
$var wire 1 J clear $end
$var reg 96 d" q [95:0] $end
$upscope $end
$scope module regE $end
$var wire 1 $ clk $end
$var wire 175 e" d [174:0] $end
$var wire 1 % reset $end
$var wire 1 I clear $end
$var reg 175 f" q [174:0] $end
$upscope $end
$scope module regM $end
$var wire 1 $ clk $end
$var wire 101 g" d [100:0] $end
$var wire 1 % reset $end
$var reg 101 h" q [100:0] $end
$upscope $end
$scope module regW $end
$var wire 1 $ clk $end
$var wire 101 i" d [100:0] $end
$var wire 1 % reset $end
$var reg 101 j" q [100:0] $end
$upscope $end
$scope module resultmux $end
$var wire 32 k" d0 [31:0] $end
$var wire 32 l" d1 [31:0] $end
$var wire 32 m" d2 [31:0] $end
$var wire 2 n" s [1:0] $end
$var wire 32 o" y [31:0] $end
$upscope $end
$scope module rf $end
$var wire 5 p" a1 [4:0] $end
$var wire 5 q" a2 [4:0] $end
$var wire 5 r" a3 [4:0] $end
$var wire 1 $ clk $end
$var wire 32 s" wd3 [31:0] $end
$var wire 1 ? we3 $end
$var wire 32 t" rd2 [31:0] $end
$var wire 32 u" rd1 [31:0] $end
$upscope $end
$scope module srcamux $end
$var wire 32 v" d0 [31:0] $end
$var wire 32 w" d1 [31:0] $end
$var wire 1 L s $end
$var wire 32 x" y [31:0] $end
$upscope $end
$scope module srcbmux $end
$var wire 32 y" d0 [31:0] $end
$var wire 32 z" d1 [31:0] $end
$var wire 1 K s $end
$var wire 32 {" y [31:0] $end
$upscope $end
$upscope $end
$scope module hu $end
$var wire 1 J FlushD $end
$var wire 1 I FlushE $end
$var wire 1 D PCSrcE $end
$var wire 5 |" RdE [4:0] $end
$var wire 5 }" RdM [4:0] $end
$var wire 5 ~" RdW [4:0] $end
$var wire 1 @ RegWriteM $end
$var wire 1 ? RegWriteW $end
$var wire 1 > ResultSrcEb0 $end
$var wire 5 !# Rs1D [4:0] $end
$var wire 5 "# Rs1E [4:0] $end
$var wire 5 ## Rs2D [4:0] $end
$var wire 5 $# Rs2E [4:0] $end
$var wire 1 8 StallD $end
$var wire 1 7 StallF $end
$var wire 1 %# lwStallD $end
$var reg 2 &# ForwardAE [1:0] $end
$var reg 2 '# ForwardBE [1:0] $end
$upscope $end
$upscope $end
$upscope $end
$upscope $end
$enddefinitions $end
#0
$dumpvars
b0 '#
b0 &#
0%#
b0 $#
b0 ##
b0 "#
b0 !#
b0 ~"
b0 }"
b0 |"
b0 {"
b0 z"
b0 y"
b0 x"
b0 w"
b0 v"
b0 u"
b0 t"
b0 s"
b0 r"
b0 q"
b0 p"
b0 o"
b0 n"
b0 m"
b0 l"
b0 k"
b0 j"
b0xxxxxxxxxxxxxxxxxxxxxxxxxxxxxxxx0000000000000000000000000000000000000 i"
b0 h"
b0 g"
b0 f"
b0 e"
b0 d"
1c"
b101000000000001000100110000000000000000000000000000000000000000000000000000000000000100 b"
b0 a"
1`"
b100 _"
b100 ^"
b0 ]"
b100 \"
b0 ["
b100 Z"
b100 Y"
b0 X"
b0 W"
b0 V"
b0 U"
b0 T"
b0 S"
b0 R"
b0 Q"
b0 P"
b0 O"
b0 N"
b0 M"
b0 L"
b0 K"
b0 J"
b0 I"
b0 H"
b0 G"
b0 F"
b0 E"
b0 D"
0C"
1B"
b0 A"
b0 @"
b0 ?"
b0 >"
b0 ="
b0 <"
b0 ;"
b0 :"
b0 9"
b0 8"
b0 7"
b0 6"
b100 5"
b0 4"
b0 3"
b100 2"
b0 1"
b0 0"
b0 /"
b0 ."
b0 -"
b0 ,"
b0 +"
b0 *"
b0 )"
b0 ("
b0 '"
b0 &"
b0 %"
b0 $"
b0 #"
b0 ""
b0 !"
b0 ~
b0 }
b0 |
b0 {
b0 z
b0 y
b0 x
b0 w
bx v
b10100000000000100010011 u
b0 t
b0 s
b0 r
b0 q
b0 p
b0 o
b0 n
b0 m
b0 l
b0 k
b0 j
b0 i
b0 h
b0 g
b0 f
b0 e
0d
0c
b0 b
b0 a
b0 `
0_
0^
0]
0\
b0 [
0Z
0Y
0X
0W
0V
0U
b0 T
b0 S
b0 R
b0 Q
b0 P
b0 O
b0 N
b0 M
0L
0K
0J
0I
b0 H
b0 G
b0 F
b0 E
0D
b0 C
b0 B
b0 A
0@
0?
0>
b0 =
b0 <
b0 ;
b0 :
b0 9
08
07
b0 6
15
b0 4
03
b0 2
bx 1
b10100000000000100010011 0
b0 /
b10100000000000100010011 .
b0 -
b0 ,
bx +
b0 *
b10100000000000100010011 )
b0 (
bx '
b0 &
1%
1$
b0 #
0"
b0 !
$end
#5
0$
#10
1$
#15
0$
#20
1$
#22
0%
#25
0$
#30
1V
b10000000001 h
1^
b10 `
b10 f
b10 q
b1000010000100 r
bx ,"
bx t"
b101 ;"
b101 N"
b10011 2
b10011 O
b10011 n
b10011 x
b101 :
b101 ""
b101 q"
b101 ##
b10 *"
b1010000000000010 M"
bx &"
bx l"
b0xxxxxxxxxxxxxxxxxxxxxxxxxxxxxxxx000000000000000000000000000000000000000101000100000000000000000000000000000010100000000000000000000000000000100 e"
b100 4"
b10100000000000100010011 9"
b1000 5"
b1000 ^"
b1000 _"
b110000000000000110010011 )
b110000000000000110010011 .
b110000000000000110010011 0
b110000000000000110010011 u
b0xxxxxxxxxxxxxxxxxxxxxxxxxxxxxxxx0000000000000000000000000000000000000 j"
b101000000000001000100110000000000000000000000000000000000000000000000000000000000000100 d"
b1000 2"
b1000 Z"
b1000 \"
b1100000000000001100100110000000000000000000000000000010000000000000000000000000000001000 b"
b100 (
b100 /
b100 E
b100 6"
b100 ["
b100 a"
1$
#35
0$
#40
05
b101 @"
b101 H"
b101 D"
b101 E"
b1100 ;"
b1100 N"
bx {
bx V"
bx y"
b101 |
b101 F"
b101 {"
b1100 :
b1100 ""
b1100 q"
b1100 ##
b11 *"
b11000000000000011 M"
1K
b1000 j
1U
b1100 5"
b1100 ^"
b1100 _"
b11111111011100011000001110010011 )
b11111111011100011000001110010011 .
b11111111011100011000001110010011 0
b11111111011100011000001110010011 u
b1000 4"
b0xxxxxxxxxxxxxxxxxxxxxxxxxxxxxxxx000000000000000000000000000001000000001100000110000000000000000000000000000110000000000000000000000000000001000 e"
b100 8"
b110000000000000110010011 9"
b100 3"
b101 /"
b101 K"
b101 ]"
b101 :"
b101 I"
b101 z"
b101xxxxxxxxxxxxxxxxxxxxxxxxxxxxxxxx0001000000000000000000000000000000100 g"
b10 C
b10 )"
b10 |"
b101 9
b101 !"
b101 $#
bx +"
bx T"
b10000000001 i
b1100 2"
b1100 Z"
b1100 \"
b111111110111000110000011100100110000000000000000000000000000100000000000000000000000000000001100 b"
b1000 (
b1000 /
b1000 E
b1000 6"
b1000 ["
b1000 a"
b1100000000000001100100110000000000000000000000000000010000000000000000000000000000001000 d"
b0xxxxxxxxxxxxxxxxxxxxxxxxxxxxxxxx000000000000000000000000000000000000000101000100000000000000000000000000000010100000000000000000000000000000100 f"
1$
#45
0$
#50
b1100 @"
b1100 H"
b1100 D"
b1100 E"
bx ."
bx u"
b11111111111111111111111111110111 ;"
b11111111111111111111111111110111 N"
b1100 |
b1100 F"
b1100 {"
13
b11 <
b11 $"
b11 p"
b11 !#
b10111 :
b10111 ""
b10111 q"
b10111 ##
b111 *"
b1111111101110001100000111 M"
b100 1"
b10 B
b10 ("
b10 }"
bx !
bx &
bx ,
bx 6
bx z
b101xxxxxxxxxxxxxxxxxxxxxxxxxxxxxxxx0001000000000000000000000000000000100 i"
b101 #
b101 *
b101 -
b101 M
b101 ?"
b101 P"
b101 U"
b1000 3"
b1100 :"
b1100 I"
b1100 z"
b1100xxxxxxxxxxxxxxxxxxxxxxxxxxxxxxxx0001100000000000000000000000000001000 g"
b11 C
b11 )"
b11 |"
b1100 9
b1100 !"
b1100 $#
b10000 /"
b10000 K"
b10000 ]"
b100 7"
b100 J"
b1100 4"
bx000000000000000000000000000010000001110111001111111111111111111111111111111011100000000000000000000000000001100 e"
b1000 8"
b11111111011100011000001110010011 9"
b10000 5"
b10000 ^"
b10000 _"
b1000111110001000110011 )
b1000111110001000110011 .
b1000111110001000110011 0
b1000111110001000110011 u
b100 l
1@
b101xxxxxxxxxxxxxxxxxxxxxxxxxxxxxxxx0001000000000000000000000000000000100 h"
b0xxxxxxxxxxxxxxxxxxxxxxxxxxxxxxxx000000000000000000000000000001000000001100000110000000000000000000000000000110000000000000000000000000000001000 f"
b111111110111000110000011100100110000000000000000000000000000100000000000000000000000000000001100 d"
b10000 2"
b10000 Z"
b10000 \"
b10001111100010001100110000000000000000000000000000110000000000000000000000000000010000 b"
b1100 (
b1100 /
b1100 E
b1100 6"
b1100 ["
b1100 a"
b1000 k
1$
#55
0$
#60
bx F
bx [
bx p
bx t
bx L"
0^
b11 @"
b11 H"
b1100 ~
b1100 G"
b1100 x"
1d
b1xxx000000100 r
b10000001100 h
b11 b
b11 g
bx ;"
bx N"
b11 D"
b11111111111111111111111111110111 E"
b1100 }
b1100 Q"
b1100 v"
b101 %"
b101 S"
b101 X"
b101 o"
b101 s"
b110011 2
b110011 O
b110011 n
b110011 x
b110 4
b110 P
b110 e
b110 y
03
b111 <
b111 $"
b111 p"
b111 !#
b10 :
b10 ""
b10 q"
b10 ##
b100 *"
b100011111000100 M"
b11111111111111111111111111110111 |
b11111111111111111111111111110111 F"
b11111111111111111111111111110111 {"
b10 H
b10 ="
b10 R"
b10 &#
1?
b10100 5"
b10100 ^"
b10100 _"
b10000011100001010110011 )
b10000011100001010110011 .
b10000011100001010110011 0
b10000011100001010110011 u
b10000 4"
bx00000000000000000000000000001100001110001000100xxxxxxxxxxxxxxxxxxxxxxxxxxxxxxxx00000000000000000000000000010000 e"
b1100 8"
b1000111110001000110011 9"
b1100 3"
b11111111111111111111111111110111 :"
b11111111111111111111111111110111 I"
b11111111111111111111111111110111 z"
b11xxxxxxxxxxxxxxxxxxxxxxxxxxxxxxxx0011100000000000000000000000000001100 g"
b111 C
b111 )"
b111 |"
b10111 9
b10111 !"
b10111 $#
b11 ;
b11 #"
b11 "#
b11111111111111111111111111111111 /"
b11111111111111111111111111111111 K"
b11111111111111111111111111111111 ]"
b1000 7"
b1000 J"
bx -"
bx O"
b1000 1"
b11 B
b11 ("
b11 }"
b1100xxxxxxxxxxxxxxxxxxxxxxxxxxxxxxxx0001100000000000000000000000000001000 i"
b1100 #
b1100 *
b1100 -
b1100 M
b1100 ?"
b1100 P"
b1100 U"
b100 0"
b100 m"
b10 A
b10 '"
b10 r"
b10 ~"
b101 >"
b101 k"
b100 m
b10100 2"
b10100 Z"
b10100 \"
b100000111000010101100110000000000000000000000000001000000000000000000000000000000010100 b"
b10000 (
b10000 /
b10000 E
b10000 6"
b10000 ["
b10000 a"
b10001111100010001100110000000000000000000000000000110000000000000000000000000000010000 d"
bx000000000000000000000000000010000001110111001111111111111111111111111111111011100000000000000000000000000001100 f"
b1100xxxxxxxxxxxxxxxxxxxxxxxxxxxxxxxx0001100000000000000000000000000001000 h"
b101xxxxxxxxxxxxxxxxxxxxxxxxxxxxxxxx0001000000000000000000000000000000100 j"
1$
#65
bx0000000000000000000000000000010100000000000000000000000000001100001110001000100xxxxxxxxxxxxxxxxxxxxxxxxxxxxxxxx00000000000000000000000000010000 e"
b101 ,"
b101 t"
0$
#70
0B"
b1100 %"
b1100 S"
b1100 X"
b1100 o"
b1100 s"
b11 ~
b11 G"
b11 x"
b101 {
b101 V"
b101 y"
bx ,"
bx t"
b11111111111111111111111111111010 E"
b11 }
b11 Q"
b11 v"
b10000010000 h
b100 b
b100 g
b10 H
b10 ="
b10 R"
b10 &#
b100 4
b100 P
b100 e
b100 y
b11 <
b11 $"
b11 p"
b11 !#
b100 :
b100 ""
b100 q"
b100 ##
b101 *"
b1000001110000101 M"
b101 |
b101 F"
b101 {"
b11111111111111111111111111111110 D"
b111 @"
b111 H"
b1000 0"
b1000 m"
b11 A
b11 '"
b11 r"
b11 ~"
b1100 >"
b1100 k"
b1100 1"
b111 B
b111 ("
b111 }"
b11xxxxxxxxxxxxxxxxxxxxxxxxxxxxxxxx0011100000000000000000000000000001100 i"
b11 #
b11 *
b11 -
b11 M
b11 ?"
b11 P"
b11 U"
b10000 3"
bx :"
bx I"
bx z"
b111000000000000000000000000000001010010000000000000000000000000000010000 g"
b100 C
b100 )"
b100 |"
b10 9
b10 !"
b10 $#
b111 ;
b111 #"
b111 "#
bx /"
bx K"
bx ]"
b1100 7"
b1100 J"
b101 +"
b101 T"
b10100 4"
bx00000000000000000000000000010000000110010000101xxxxxxxxxxxxxxxxxxxxxxxxxxxxxxxx00000000000000000000000000010100 e"
b10000 8"
b10000011100001010110011 9"
b11000 5"
b11000 ^"
b11000 _"
b10000101000001010110011 )
b10000101000001010110011 .
b10000101000001010110011 0
b10000101000001010110011 u
0K
b11 N
b11 a
b11 s
b11 A"
b1100xxxxxxxxxxxxxxxxxxxxxxxxxxxxxxxx0001100000000000000000000000000001000 j"
b11xxxxxxxxxxxxxxxxxxxxxxxxxxxxxxxx0011100000000000000000000000000001100 h"
bx0000000000000000000000000000010100000000000000000000000000001100001110001000100xxxxxxxxxxxxxxxxxxxxxxxxxxxxxxxx00000000000000000000000000010000 f"
b100000111000010101100110000000000000000000000000001000000000000000000000000000000010100 d"
b11000 2"
b11000 Z"
b11000 \"
b100001010000010101100110000000000000000000000000001010000000000000000000000000000011000 b"
b10100 (
b10100 /
b10100 E
b10100 6"
b10100 ["
b10100 a"
b10000001100 i
1$
#75
b1100xxxxxxxxxxxxxxxxxxxxxxxxxxxxxxxx00000000000000000000000000010000000110010000101xxxxxxxxxxxxxxxxxxxxxxxxxxxxxxxx00000000000000000000000000010100 e"
b1100 ."
b1100 u"
0$
#80
05
b111 |
b111 F"
b111 {"
b111 E"
b10000000000 h
b0 b
b0 g
bx ."
bx u"
b111 {
b111 V"
b111 y"
b1100 ~
b1100 G"
b1100 x"
b11 %"
b11 S"
b11 X"
b11 o"
b11 s"
b10011 D"
b1011 @"
b1011 H"
b0 4
b0 P
b0 e
b0 y
b101 <
b101 $"
b101 p"
b101 !#
b1000010100000101 M"
b1100 }
b1100 Q"
b1100 v"
b10 G
b10 <"
b10 W"
b10 '#
b0 H
b0 ="
b0 R"
b0 &#
b100 N
b100 a
b100 s
b100 A"
b11100 5"
b11100 ^"
b11100 _"
b10011100101000100001100011 )
b10011100101000100001100011 .
b10011100101000100001100011 0
b10011100101000100001100011 u
b11000 4"
bx00000000000000000000000000010100001010010000101xxxxxxxxxxxxxxxxxxxxxxxxxxxxxxxx00000000000000000000000000011000 e"
b10100 8"
b10000101000001010110011 9"
b10100 3"
b1011000000000000000000000000000001110010100000000000000000000000000010100 g"
b101 C
b101 )"
b101 |"
b100 9
b100 !"
b100 $#
b11 ;
b11 #"
b11 "#
b10000 7"
b10000 J"
bx +"
bx T"
b1100 -"
b1100 O"
b10000 1"
b100 B
b100 ("
b100 }"
b101 !
b101 &
b101 ,
b101 6
b101 z
b111xxxxxxxxxxxxxxxxxxxxxxxxxxxxxxxx0010000000000000000000000000000010000 i"
b111 #
b111 *
b111 -
b111 M
b111 ?"
b111 P"
b111 U"
b1100 0"
b1100 m"
b111 A
b111 '"
b111 r"
b111 ~"
b11 >"
b11 k"
b10000010000 i
b11100 2"
b11100 Z"
b11100 \"
b100111001010001000011000110000000000000000000000000001100000000000000000000000000000011100 b"
b11000 (
b11000 /
b11000 E
b11000 6"
b11000 ["
b11000 a"
b100001010000010101100110000000000000000000000000001010000000000000000000000000000011000 d"
b1100xxxxxxxxxxxxxxxxxxxxxxxxxxxxxxxx00000000000000000000000000010000000110010000101xxxxxxxxxxxxxxxxxxxxxxxxxxxxxxxx00000000000000000000000000010100 f"
b111000000000000000000000000000001010010000000000000000000000000000010000 h"
b11xxxxxxxxxxxxxxxxxxxxxxxxxxxxxxxx0011100000000000000000000000000001100 j"
1$
#85
0$
#90
0C"
1B"
b111 E"
05
b110000 ;"
b110000 N"
b1 b
b1 g
b10010 D"
b1011 ~
b1011 G"
b1011 x"
b111 %"
b111 S"
b111 X"
b111 o"
b111 s"
b111 |
b111 F"
b111 {"
0V
b10 F
b10 [
b10 p
b10 t
b10 L"
b100100 h
1]
b1 `
b1 f
b1 q
b1011 }
b1011 Q"
b1011 v"
b11 ,"
b11 t"
b111 {
b111 V"
b111 y"
b10000001010 r
b10 H
b10 ="
b10 R"
b10 &#
b1 G
b1 <"
b1 W"
b1 '#
b1100011 2
b1100011 O
b1100011 n
b1100011 x
b111 :
b111 ""
b111 q"
b111 ##
b10000 *"
b1001110010100010000 M"
b10010 @"
b10010 H"
b10000 0"
b10000 m"
b100 A
b100 '"
b100 r"
b100 ~"
b111 >"
b111 k"
b10100 1"
b101 B
b101 ("
b101 }"
b111 !
b111 &
b111 ,
b111 6
b111 z
b1011xxxxxxxxxxxxxxxxxxxxxxxxxxxxxxxx0010100000000000000000000000000010100 i"
b1011 #
b1011 *
b1011 -
b1011 M
b1011 ?"
b1011 P"
b1011 U"
b10010000000000000000000000000000001110010100000000000000000000000000011000 g"
b11000 3"
b101 ;
b101 #"
b101 "#
b10100 7"
b10100 J"
bx -"
bx O"
b11100 4"
bx00000000000000000000000000000011000000000000000000000000000110000010100111100000000000000000000000000000011000000000000000000000000000000011100 e"
b11000 8"
b10011100101000100001100011 9"
b100000 5"
b100000 ^"
b100000 _"
b10000011010001000110011 )
b10000011010001000110011 .
b10000011010001000110011 0
b10000011010001000110011 u
b0 N
b0 a
b0 s
b0 A"
b111xxxxxxxxxxxxxxxxxxxxxxxxxxxxxxxx0010000000000000000000000000000010000 j"
b1011000000000000000000000000000001110010100000000000000000000000000010100 h"
bx00000000000000000000000000010100001010010000101xxxxxxxxxxxxxxxxxxxxxxxxxxxxxxxx00000000000000000000000000011000 f"
b100111001010001000011000110000000000000000000000000001100000000000000000000000000000011100 d"
b100000 2"
b100000 Z"
b100000 \"
b100000110100010001100110000000000000000000000000001110000000000000000000000000000100000 b"
b11100 (
b11100 /
b11100 E
b11100 6"
b11100 ["
b11100 a"
b10000000000 i
1$
#95
0$
#100
b11 |
b11 F"
b11 {"
b101 b
b101 g
b11 {
b11 V"
b11 y"
1V
bx F
bx [
bx p
bx t
bx L"
b10000010100 h
0]
b10 `
b10 f
b10 q
b11111111111111111111111111111100 E"
b1111 @"
b1111 H"
b1xxx000000100 r
b1100 ."
b1100 u"
b111 ,"
b111 t"
bx ;"
bx N"
b10010 ~
b10010 G"
b10010 x"
b1011 %"
b1011 S"
b1011 X"
b1011 o"
b1011 s"
b1111 D"
b110011 2
b110011 O
b110011 n
b110011 x
b10 4
b10 P
b10 e
b10 y
b11 <
b11 $"
b11 p"
b11 !#
b100 :
b100 ""
b100 q"
b100 ##
b100 *"
b1000001101000100 M"
b10010 }
b10010 Q"
b10010 v"
b0 G
b0 <"
b0 W"
b0 '#
b10 H
b10 ="
b10 R"
b10 &#
b1 N
b1 a
b1 s
b1 A"
1\
b0 j
0U
b100100 5"
b100100 ^"
b100100 _"
b100000010001100011 )
b100000010001100011 .
b100000010001100011 0
b100000010001100011 u
b100000 4"
b11000000000000000000000000000000011100000000000000000000000000011100000110010000100xxxxxxxxxxxxxxxxxxxxxxxxxxxxxxxx00000000000000000000000000100000 e"
b11100 8"
b10000011010001000110011 9"
b11100 3"
b1001000 /"
b1001000 K"
b1001000 ]"
b110000 :"
b110000 I"
b110000 z"
b1111000000000000000000000000000000111000000000000000000000000000000011100 g"
b10000 C
b10000 )"
b10000 |"
b111 9
b111 !"
b111 $#
b11000 7"
b11000 J"
b11 +"
b11 T"
b11000 1"
b10010xxxxxxxxxxxxxxxxxxxxxxxxxxxxxxxx0010100000000000000000000000000011000 i"
b10010 #
b10010 *
b10010 -
b10010 M
b10010 ?"
b10010 P"
b10010 U"
b10100 0"
b10100 m"
b101 A
b101 '"
b101 r"
b101 ~"
b1011 >"
b1011 k"
b100100 i
b100100 2"
b100100 Z"
b100100 \"
b1000000100011000110000000000000000000000000010000000000000000000000000000000100100 b"
b100000 (
b100000 /
b100000 E
b100000 6"
b100000 ["
b100000 a"
b100000110100010001100110000000000000000000000000001110000000000000000000000000000100000 d"
bx00000000000000000000000000000011000000000000000000000000000110000010100111100000000000000000000000000000011000000000000000000000000000000011100 f"
b10010000000000000000000000000000001110010100000000000000000000000000011000 h"
b1011xxxxxxxxxxxxxxxxxxxxxxxxxxxxxxxx0010100000000000000000000000000010100 j"
1$
#105
0$
